^C:\USERS\ANDROPC\SOURCE\REPOS\EJER10\EJER10\STDAFX.CPP
C:\USERS\ANDROPC\SOURCE\REPOS\EJER10\EJER10\DEBUG\EJER10.PCH
C:\USERS\ANDROPC\SOURCE\REPOS\EJER10\EJER10\DEBUG\VC141.PDB
C:\USERS\ANDROPC\SOURCE\REPOS\EJER10\EJER10\DEBUG\VC141.IDB
C:\USERS\ANDROPC\SOURCE\REPOS\EJER10\EJER10\DEBUG\STDAFX.OBJ
^C:\USERS\ANDROPC\SOURCE\REPOS\EJER10\EJER10\EJER10.CPP
C:\USERS\ANDROPC\SOURCE\REPOS\EJER10\EJER10\DEBUG\VC141.PDB
C:\USERS\ANDROPC\SOURCE\REPOS\EJER10\EJER10\DEBUG\VC141.IDB
C:\USERS\ANDROPC\SOURCE\REPOS\EJER10\EJER10\DEBUG\EJER10.OBJ
